[
    {
      "name": "flower",
      "image": "public.ecr.aws/i5s5i5j8/flower",
      "cpu": 10,
      "memory": 256,
      "essential": true,
      "portMappings": [
        {
          "containerPort": 80
        }
      ],
      "logConfiguration": {
        "logDriver": "awslogs",
        "options": { 
          "awslogs-group" : "/ecs/frontend-container",
          "awslogs-region": "us-east-1"
        }
      }
    }
]
